{
  "@type" : "TEMPLATE",
  "uid" : "d4f10fbe-a4a1-4c75-8ef1-e846866c66c9",
  "description" : {
    "@type" : "RESOURCE_DESCRIPTION",
    "originalAuthor" : {
      "date" : "2019-04-12"
    },
    "otherContributors" : [ ],
    "lifecycleState" : {
      "codeString" : "unmanaged"
    },
    "ipAcknowledgements" : { },
    "references" : { },
    "conversionDetails" : { },
    "otherDetails" : {
      "licence" : "This work is licensed under the Creative Commons Attribution-ShareAlike 3.0 License. To view a copy of this license, visit http://creativecommons.org/licenses/by-sa/3.0/.",
      "custodian_organisation" : "openEHR Foundation",
      "original_namespace" : "org.openehr",
      "original_publisher" : "openEHR Foundation",
      "custodian_namespace" : "org.openehr",
      "MD5-CAM-1.0.1" : "81416acf36bca483d051a545ccfc112f",
      "PARENT:MD5-CAM-1.0.1" : "f2f0afc054588e162c8162ace7b5c8e5"
    },
    "details" : {
      "en" : {
        "@type" : "RESOURCE_DESCRIPTION_ITEM",
        "language" : {
          "terminologyId" : {
            "value" : "ISO_639-1"
          },
          "codeString" : "en"
        },
        "keywords" : [ ],
        "originalResourceUri" : { },
        "otherDetails" : { }
      }
    }
  },
  "parentArchetypeId" : "openEHR-EHR-COMPOSITION.in_situ_device_list.v0",
  "differential" : true,
  "archetypeId" : {
    "@type" : "ARCHETYPE_HRID",
    "value" : "openEHR-EHR-COMPOSITION.in_situ_device_list.v0"
  },
  "definition" : {
    "@type" : "C_COMPLEX_OBJECT",
    "rmTypeName" : "COMPOSITION",
    "nodeId" : "at0000.1",
    "attributes" : [ {
      "@type" : "C_ATTRIBUTE",
      "rmAttributeName" : "content",
      "existence" : "0..1",
      "cardinality" : {
        "@type" : "CARDINALITY",
        "interval" : "0..*",
        "ordered" : false,
        "unique" : false
      },
      "children" : [ {
        "@type" : "C_ARCHETYPE_ROOT",
        "rmTypeName" : "EVALUATION",
        "occurrences" : "0..*",
        "nodeId" : "at0.2",
        "attributes" : [ ],
        "attributeTuples" : [ ],
        "archetypeRef" : "openEHR-EHR-EVALUATION.ovl-device_summary-001.v0",
        "referenceType" : "archetypeOverlay"
      } ]
    } ],
    "attributeTuples" : [ ]
  },
  "terminology" : {
    "@type" : "ARCHETYPE_TERMINOLOGY",
    "conceptCode" : "at0000",
    "termDefinitions" : {
      "en" : { }
    },
    "termBindings" : { },
    "terminologyExtracts" : { },
    "valueSets" : { }
  },
  "adlVersion" : "1.4",
  "buildUid" : "5f76fd64-d54b-38cd-862b-393f09026861",
  "rmName" : "openehr",
  "rmRelease" : "1.0.3",
  "generated" : true,
  "templateId" : "MNEHR - Devices and Implants list-v0",
  "otherMetaData" : { },
  "templateOverlays" : [ {
    "@type" : "TEMPLATE_OVERLAY",
    "uid" : "6f339fce-3da7-4937-adc2-329bfd4b8511",
    "description" : {
      "@type" : "RESOURCE_DESCRIPTION",
      "originalAuthor" : { },
      "otherContributors" : [ ],
      "ipAcknowledgements" : { },
      "references" : { },
      "conversionDetails" : { },
      "otherDetails" : {
        "PARENT:MD5-CAM-1.0.1" : "95E0E61FD13A70461F5D0B044F3F08CC"
      },
      "details" : {
        "en" : {
          "@type" : "RESOURCE_DESCRIPTION_ITEM",
          "language" : {
            "terminologyId" : {
              "value" : "ISO_639-1"
            },
            "codeString" : "en"
          },
          "purpose" : "To record an ongoing and persistent overview about medical devices that have been fitted or implanted.",
          "keywords" : [ ],
          "use" : "Use to record a summary of medical devices that have been fitted or implanted including, but not limited to:\r\n- assisted hearing devices, such as hearing aids or auditory implants;\r\n- orthotics or artificial limbs; \r\n- dentures or dental implants; and\r\n- eyeglasses or contact lenses.\r\n\r\nThis archetype has been specifically designed to assist in providing an overview of management of medical devices over time. It may be used to share as a summary within messages or between clinical systems, where the detail is not required. If specific devices have been used in the past, as much detail as is available can be added in this archetype to create a context which may influence decisions about current or future devices of the same type.\r\n\r\nIn practice, some clinical systems will need to record specific and detailed INSTRUCTION and ACTION archetypes to reflect the request for an medical device and subseqent activities that need to be recorded as that request is carried out. It is inevitable that there will be some overlap in this summary and these detailed archetypes. All are neccessary in various situations. \r\n\r\nIf clinicians are recording the process of request and provision of medical devices, then this summary should be derived from those recordings, to ensure that there is no duplication of clinical input.",
          "misuse" : "Not to be used to request a medical device - use the INSTRUCTION.request family for this purpose.\r\n\r\nNot to be used to record the activities that occur in the planning and fitting of a device - use the ACTION.device_fitting archetype for this purpose.\r\n\r\nNot to be used to record the activities that occur in the planning and fitting of an implant - use the ACTION.procedure archetype for this purpose.",
          "copyright" : "© Northern Territory Department of Health, Australia, openEHR Foundation",
          "originalResourceUri" : { },
          "otherDetails" : { }
        }
      }
    },
    "parentArchetypeId" : "openEHR-EHR-EVALUATION.device_summary.v0",
    "differential" : true,
    "archetypeId" : {
      "@type" : "ARCHETYPE_HRID",
      "value" : "openEHR-EHR-EVALUATION.ovl-device_summary-001.v0"
    },
    "definition" : {
      "@type" : "C_COMPLEX_OBJECT",
      "rmTypeName" : "EVALUATION",
      "nodeId" : "at0000.1",
      "attributes" : [ {
        "@type" : "C_ATTRIBUTE",
        "rmAttributeName" : "data",
        "children" : [ {
          "@type" : "C_COMPLEX_OBJECT",
          "rmTypeName" : "ITEM_TREE",
          "nodeId" : "at0001",
          "attributes" : [ {
            "@type" : "C_ATTRIBUTE",
            "rmAttributeName" : "items",
            "cardinality" : {
              "@type" : "CARDINALITY",
              "interval" : "0..*",
              "ordered" : false,
              "unique" : false
            },
            "children" : [ {
              "@type" : "C_COMPLEX_OBJECT",
              "rmTypeName" : "CLUSTER",
              "nodeId" : "at0022",
              "attributes" : [ {
                "@type" : "C_ATTRIBUTE",
                "rmAttributeName" : "items",
                "cardinality" : {
                  "@type" : "CARDINALITY",
                  "interval" : "1..*",
                  "ordered" : false,
                  "unique" : false
                },
                "children" : [ {
                  "@type" : "C_COMPLEX_OBJECT",
                  "rmTypeName" : "ELEMENT",
                  "occurrences" : "0..0",
                  "nodeId" : "at0009.1",
                  "attributes" : [ {
                    "@type" : "C_ATTRIBUTE",
                    "rmAttributeName" : "value",
                    "children" : [ {
                      "@type" : "C_COMPLEX_OBJECT",
                      "rmTypeName" : "DV_DATE_TIME",
                      "attributes" : [ {
                        "@type" : "C_ATTRIBUTE",
                        "rmAttributeName" : "value",
                        "children" : [ {
                          "@type" : "C_DATE_TIME",
                          "rmTypeName" : "DATE_TIME",
                          "constraint" : [ ]
                        } ]
                      } ],
                      "attributeTuples" : [ ]
                    } ]
                  } ],
                  "attributeTuples" : [ ]
                }, {
                  "@type" : "C_COMPLEX_OBJECT",
                  "rmTypeName" : "ELEMENT",
                  "occurrences" : "0..0",
                  "nodeId" : "at0023.1",
                  "attributes" : [ {
                    "@type" : "C_ATTRIBUTE",
                    "rmAttributeName" : "value",
                    "children" : [ {
                      "@type" : "C_COMPLEX_OBJECT",
                      "rmTypeName" : "DV_URI",
                      "attributes" : [ {
                        "@type" : "C_ATTRIBUTE",
                        "rmAttributeName" : "value",
                        "children" : [ {
                          "@type" : "C_STRING",
                          "rmTypeName" : "STRING",
                          "constraint" : [ ]
                        } ]
                      } ],
                      "attributeTuples" : [ ]
                    } ]
                  } ],
                  "attributeTuples" : [ ]
                }, {
                  "@type" : "C_COMPLEX_OBJECT",
                  "rmTypeName" : "ELEMENT",
                  "occurrences" : "0..0",
                  "nodeId" : "at0019.1",
                  "attributes" : [ {
                    "@type" : "C_ATTRIBUTE",
                    "rmAttributeName" : "value",
                    "children" : [ {
                      "@type" : "C_COMPLEX_OBJECT",
                      "rmTypeName" : "DV_DATE_TIME",
                      "attributes" : [ {
                        "@type" : "C_ATTRIBUTE",
                        "rmAttributeName" : "value",
                        "children" : [ {
                          "@type" : "C_DATE_TIME",
                          "rmTypeName" : "DATE_TIME",
                          "constraint" : [ ]
                        } ]
                      } ],
                      "attributeTuples" : [ ]
                    } ]
                  } ],
                  "attributeTuples" : [ ]
                }, {
                  "@type" : "C_ARCHETYPE_ROOT",
                  "rmTypeName" : "CLUSTER",
                  "occurrences" : "0..*",
                  "nodeId" : "at0010.1",
                  "attributes" : [ ],
                  "attributeTuples" : [ ],
                  "archetypeRef" : "openEHR-EHR-CLUSTER.ovl-device-001.v1",
                  "referenceType" : "archetypeOverlay"
                } ]
              } ],
              "attributeTuples" : [ ]
            } ]
          } ],
          "attributeTuples" : [ ]
        } ]
      } ],
      "attributeTuples" : [ ]
    },
    "terminology" : {
      "@type" : "ARCHETYPE_TERMINOLOGY",
      "conceptCode" : "at0000",
      "termDefinitions" : {
        "en" : { }
      },
      "termBindings" : { },
      "terminologyExtracts" : { },
      "valueSets" : { }
    },
    "adlVersion" : "1.4",
    "buildUid" : "c8d8d0a7-3034-4033-ac64-96423fbc76a6",
    "rmName" : "openehr",
    "rmRelease" : "1.0.3",
    "generated" : true,
    "otherMetaData" : { },
    "originalLanguage" : {
      "terminologyId" : {
        "value" : "ISO_639-1"
      },
      "codeString" : "en"
    },
    "translations" : [ ]
  }, {
    "@type" : "TEMPLATE_OVERLAY",
    "uid" : "35f90c19-6413-4be2-80c0-b81df4b01791",
    "description" : {
      "@type" : "RESOURCE_DESCRIPTION",
      "originalAuthor" : { },
      "otherContributors" : [ ],
      "ipAcknowledgements" : { },
      "references" : { },
      "conversionDetails" : { },
      "otherDetails" : {
        "PARENT:MD5-CAM-1.0.1" : "E4E11C034E29C626B3B3A8448D2CB86C"
      },
      "details" : {
        "nb" : {
          "@type" : "RESOURCE_DESCRIPTION_ITEM",
          "language" : {
            "terminologyId" : {
              "value" : "ISO_639-1"
            },
            "codeString" : "nb"
          },
          "purpose" : "*To record the details of a medical device used in the provision of healthcare.(en)",
          "keywords" : [ "*device(en)", "*machine(en)", "*implant(en)", "*appliance(en)", "*catheter(en)", "*prosthesis(en)", "*aid(en)", "*biomedical(en)", "*instrument(en)", "*equipment(en)", "*meter(en)", "*monitor(en)", "*software(en)" ],
          "use" : "*Use to record the details of a medical device used in the provision of healthcare.\r\n\r\nUse of the term 'medical device' varies depending on context. Within the Standards world, the term device tends to refer to mechanical or electronic devices that support healthcare and require rigorous documentation regarding location tracking, maintenance, calibration, software versions etc.  Within the terminology context the use of device is very broad, including any medical device that can be used in direct or indirect provision of clinical care, as long as it is does not act in a way that exerts a direct pharmacological, metabolic or  immunological effect.\r\n\r\nExamples of medical devices range from simple devices such as urinary catheters, tongue depressors, contact lenses, breast implants, plain dressings, joint prostheses, syringe drivers and spirometers through to advanced devices such as artificial hearts, mobile phone applications and computerised devices that capture point-of-care medical measurements. \r\n\r\nIn the complex situation where a surgically implanted device is used as the means to deliver therapeutic agents such as chemotherapy directly into the body, this archetype will be used to record only the details about the medical device itself and the order for medication and details about the actual administration of the therapeutic agent will be recorded using specific medication-related INSTRUCTION and ACTION archetypes.\r\n\r\nThis archetype is designed to provide the framework for structured representation of any medical device and the data elements that are contained here are not specific for any one type of device. Single use devices will commonly require data elements such as Lot Number and Date of Expiry. In contrast these are usually not relevant for durable devices which will often have a set of identifiers, including a UID, Serial Number, Model etc.\r\n\r\nFurther, different types of devices will require specific information relevant to their purpose. This data can be recorded using specific CLUSTER archetypes inserted into the 'Specific propserties' SLOT. For example: use of a urinary catheter may require additional details about the diameter and length of catheter, material composition, number of lumens etc.\r\n\r\nIf the medical device has a number of components that require recording of details, each individual component should be recorded explicitly by using an additional CLUSTER.device archetype inserted into the 'Components' SLOT.\r\n\r\nThe data field 'Software Version' allows for only a single version to be recorded. This is primarily applicable for a device which is a software application. If the device has multiple software or hardware components that need to be specified, this should be done by using an addition CLUSTER.device inserted into the 'Components' SLOT.\r\n\r\nTo record additional details for durable or persistent devices that relate to ownership, physical location tracking, maintenance schedules etc, use CLUSTER.device_details archetype inserted into the 'Asset management' SLOT in this archetype.(en)",
          "misuse" : "*Not to be used to record data about medicinal products that exert a direct pharmacological, metabolic or immunologic direct effect. For example: a medicine impregnated dressing should be recorded using the  INSTRUCTION.medication_order archetype, focused on the active ingredients, dosage etc.(en)",
          "copyright" : "© *© openEHR Foundation(en), openEHR Foundation",
          "originalResourceUri" : { },
          "otherDetails" : { }
        },
        "es-ar" : {
          "@type" : "RESOURCE_DESCRIPTION_ITEM",
          "language" : {
            "terminologyId" : {
              "value" : "ISO_639-1"
            },
            "codeString" : "es-ar"
          },
          "purpose" : "Registrar los detalles de un objeto físico, producto o dispositivo utilizado en el sentido mas amplio de la provisión de cuidados de la salud, pero no como medio terapéutico o metabólico.",
          "keywords" : [ "dispositivo", "máquina", "implante", "cateter", "prótesis", "auxiliar", "biomédico", "instrumento", "equipamiento", "medidor", "monitor", "físico", "objeto" ],
          "use" : "Utilizado para registrar los detalles de cualquier dispositivo genérico que puede ser utilizado directamente de un modo terapéutico o diagnóstico, o indirectamente como apoyo a la provisión de cuidados de la salud. El uso del término dispositivo varía dependiendo del contexto. En el mundo de los estándares, el término dispositivo tiende a referirse a dispositivos mecánicos o electrónicos que actuan como apoyo del cuidado de la salud y que requiren documentación rigurosa en cuanto a especificaciones, mantenimiento, etc. En el contexto de las terminologías, el uso de dispositivo es muy amplio, incluyendo a cualquier objeto físico que pueda ser utilizado directa o indirectamente en la provisión de cuidados clínicos. Los ejemplos incluyen ventiladores, medidores de flujo expiratorio máximo, espirómetros, lentes oculares y de contacto, catéteres endovasculares, implantes mamarios, prótesis, tubos de drenaje y anillos para callos. \r\nEste arquetipo esta diseñado para proveer la base de una representación estructurada de cualquier dispositivo, desde el simple ejemplo de una marca de tira reactiva urinaria con una fecha de vencimiento hasta un oído biónico implantable que puede requerir documentación compleja, software, hardware, mantenimiento, calibración, etc.\r\nPara los casos de uso habituales podría ser apropiada la especialización de este arquetipo para formas específicas (ej.: cateter endovascular o cateter urinario).",
          "misuse" : "No debe ser utilizado para el registro de medicamentos, vacunas o similares, que se utizan como medios terapéuticos o metabólicos.",
          "copyright" : "© *© openEHR Foundation(en), openEHR Foundation",
          "originalResourceUri" : { },
          "otherDetails" : { }
        },
        "pt-br" : {
          "@type" : "RESOURCE_DESCRIPTION_ITEM",
          "language" : {
            "terminologyId" : {
              "value" : "ISO_639-1"
            },
            "codeString" : "pt-br"
          },
          "purpose" : "Para gravar os detalhes de um dispositivo médico usado na prestação de cuidados de saúde.",
          "keywords" : [ "dispositivo", "máquina", "implante", "catéter", "prótese", "cuidado", "biomedical", "instrumento", "equipamento", "monitor", "software", "utensílio" ],
          "use" : "Use para gravar os detalhes de um dispositivo médico utilizado na prestação de cuidados de saúde .\r\n\r\nO uso do termo \"dispositivo médico\" varia dependendo do contexto. No mundo dos padrões, o termo dispositivo tende a referir-se a dispositivos mecânicos ou eletrônicos que apoiam cuidados de saúde e exigem documentação rigorosa sobre rastreamento de localização, manutenção, calibração, versões de software etc. Dentro do contexto da terminologia o uso de dispositivo é muito amplo , incluindo qualquer dispositivo médico que pode ser utilizado direta ou indiretamente em cuidados clínicos , desde que não atue de forma que exerça uma ação farmacológica direta , metabólica ou como efeito imunológico .\r\n\r\nOs dispositivos médicos variam de dispositivos simples, como catéteres urinários, abaixadores de língua, lentes de contato, próteses articulares, os implantes mamários e curativos simples, até dispositivos avançados, como corações artificiais, espirômetros, além de aplicativos para celulares e dispositivos computadorizados que capturam medidas médicas.\r\n\r\nEm situações complexas, onde um dispositivo implantado cirurgicamente é usado para administrar agentes terapêuticos, tais como a quimioterapia, este arquétipo irá ser utilizado para gravar apenas os detalhes sobre o próprio dispositivo médico e a prescrição da medicação e detalhes sobre o administração real do agente terapêutico serão registrados utilizando-se a arquétipos INSTRUCTION e ACTION sobre a medicação específica.\r\n\r\nEste arquétipo é projetado para fornecer a estrutura para representação estruturada de qualquer dispositivo médico e os elementos de dados que estão contidos aqui não são específicos para algum tipo de dispositivo. Dispositivos de uso único comumente vão exigir elementos de dados, tais como número de lote e data de validade. Em contrapartida estes geralmente não são relevantes para dispositivos duráveis que, muitas vezes, têm um conjunto de identificadores, incluindo uma UID, número de série, modelo, etc..\r\n\r\nAlém disso, diferentes tipos de dispositivos exigirão informações específicas relevantes para a sua finalidade. Estes dados podem ser gravados utilizando-se arquétipos CLUSTER específico inseridos no SLOT das propriedades específicas. Por exemplo: utilização de um catéter urinário pode exigir detalhes adicionais sobre o diâmetro e o comprimento do catéter, composição do material, número de lúmens etc.\r\n\r\nSe o dispositivo médico tem um número de componentes que necessitem de gravação de dados, todos os componentes individuais deverão ser registrados explicitamente utilizando-se um arquétipo CLUSTER.device adicional introduzido nos campos dos componentes.\r\n\r\nO campo de dados versão do software permite apenas uma única versão a ser gravado. Isto é especialmente aplicável para um dispositivo que é uma aplicação de software. Se o dispositivo possui vários componentes de software ou hardware que precisam ser especificados, este deve ser feito por meio de um CLUSTER.device além de inserido no slot do 'Componentes'.\r\n\r\nPara gravar detalhes adicionais para dispositivos duráveis ou permanentes que se relacionam com a posse, rastreamento de localização física, programações de manutenção etc, o uso do arquétipo CLUSTER.device_details no slot \"A gestão de ativos\" desse arquétipo.\r\n\r\nEste arquétipo foi projetado para uso genérico com outros arquétipos que precisam descrever um dispositivo. Exemplos incluem: OBSERVATION.blood_pressure para o esfigmomanômetro; OBSERVATION.ecg para o equipamento de ECG; OBSERVATION.urinalysis para as tiras de reagente e o dispositivo usado para os testes; ACTION.procedure; e CLUSTER.exam_tympanic_membrane para detalhar o otoscópio usado.",
          "misuse" : "Não deve ser utilizado para gravar dados sobre os medicamentos que exercem uma ação farmacológica direta , metabólica ou efeito imunológico. Por exemplo: um curativo impregnado que exige uma prescrição deve ser gravado utilizando-se o o arquétipo INSTRUCTION.medication_order, com foco em ingredientes ativos, dosagem, etc.",
          "copyright" : "© *© openEHR Foundation(en), openEHR Foundation",
          "originalResourceUri" : { },
          "otherDetails" : { }
        },
        "ar-sy" : {
          "@type" : "RESOURCE_DESCRIPTION_ITEM",
          "language" : {
            "terminologyId" : {
              "value" : "ISO_639-1"
            },
            "codeString" : "ar-sy"
          },
          "purpose" : "لتسجيل التفاصيل حول شيئ محسوس, مُنتَج أو جهيزة يتم استخدامها في أوسع وصف لتقديم الخدمة الصحية, و لكن دون طريقة أيضية أو علاجية مباشِرة.",
          "keywords" : [ "الجهيزة", "الآلة", "الطُّعم", "جهاز مساعد", "القثطار", "البِدْلة", "مساعدة", "طبي بيولوجي", "أداة", "المعدات", "مقياس", "مِرْقب", "بدني/محسوس", "شيئ" ],
          "use" : "يستخدم لتسجيل التفاصيل حول أي جهيزة جنيسة (غير محدودة الملكية) و التي يمكن أن تستخدم إما مباشرةً بطريقة علاجية أو تشخيصية أو تستخدم بشكل غير مباشر لدعم تقديم الخدمة الصحية.\r\nو يختلف استخدام اللفظ (جهيزة) على حسب السياق. \r\nو في داخل عالم المعايير, فإن اللفظ (جهيزة) يميل إلى الإشارة إلى الجهائز الإلكترونية أو الميكانيكية/الحركية و التي تدعم الرعاية الصحية, و تتطلب توثيق مكثف فيما يتعلق بالمواصفات و الصيانة... إلى آخره.\r\nو في سياق عالم المصطلحات فإن استخدام (جهيزة) واسع جدا, بما في ذلك أي شيئ محسوس يمكن استخدامه في تقديم الرعاية الصحية إما بشكل مباشر أو غير مباشر. \r\nو تتضمن الأمثلة: دوائر أجهزة التنفس الصناعي, مقاييس الجريان القِمِّي, مقاييس التنفس, نظارات العين, العدسات اللاصقة, القثطار داخل الوريد, طُعوم الثدي, البِدْلات, أنابيب المَنْزَح, و الحلقات المسمارية.\r\n\r\nو تم تصميم هذا النموذج ليمثل الأساس لعرض مركب لأي جهيزة, من مثال بسيط لنوع من غميسة البول مع تاريخ الاستخدام, إلى طعم أذن من كائن حيّ و الذي يتطلب توثيق مركب مثل البرنامج الإلكتروني, و الأجزاء الصلبة, و الصيانة و التعيير, إلى آخره.\r\n\r\nو بالنسبة لحالات الاستخدام المعتادة, فقد يكون من المناسب تخصيص هذا النموذج خاصة في القثطار داخل الوريد أو القثطار البولي.",
          "misuse" : "لا يستخدم لتسجيل المنتجات, مثل الأدوية أو التطعيمات أو ما شابه, و التي تستخدم لأغراض علاجية أو أيضية",
          "copyright" : "© *© openEHR Foundation(en), openEHR Foundation",
          "originalResourceUri" : { },
          "otherDetails" : { }
        },
        "en" : {
          "@type" : "RESOURCE_DESCRIPTION_ITEM",
          "language" : {
            "terminologyId" : {
              "value" : "ISO_639-1"
            },
            "codeString" : "en"
          },
          "purpose" : "To record the details of a medical device used in the provision of healthcare.",
          "keywords" : [ "device", "machine", "implant", "appliance", "catheter", "prosthesis", "aid", "biomedical", "instrument", "equipment", "meter", "monitor", "software" ],
          "use" : "Use to record the details of a medical device used in the provision of healthcare.\r\n\r\nUse of the term 'medical device' varies depending on context. Within the Standards world, the term device tends to refer to mechanical or electronic devices that support healthcare and require rigorous documentation regarding location tracking, maintenance, calibration, software versions etc.  Within the terminology context the use of device is very broad, including any medical device that can be used in direct or indirect provision of clinical care, as long as it does not act in a way that exerts a direct pharmacological, metabolic or  immunological effect.\r\n\r\nExamples of medical devices range from simple devices such as urinary catheters, tongue depressors, contact lenses, artificial joint implants, breast implants and plain dressings through to advanced devices such as artificial hearts, syringe drivers, spirometers, mobile phone applications and computerised devices that capture point-of-care medical measurements. \r\n\r\nIn the complex situation where a surgically implanted device is used as the means to deliver therapeutic agents such as chemotherapy directly into the body, this archetype will be used to record only the details about the medical device itself and the order for medication and details about the actual administration of the therapeutic agent will be recorded using specific medication-related INSTRUCTION and ACTION archetypes.\r\n\r\nThis archetype is designed to provide the framework for structured representation of any medical device and the data elements that are contained here are not specific for any one type of device. Single use devices will commonly require data elements such as Lot Number and Date of Expiry. In contrast these are usually not relevant for durable devices which will often have a set of identifiers, including a UID, Serial Number, Model etc.\r\n\r\nFurther, different types of devices will require specific information relevant to their purpose. This data can be recorded using specific CLUSTER archetypes inserted into the 'Specific properties' SLOT. For example: use of a urinary catheter may require additional details about the diameter and length of catheter, material composition, number of lumens etc.\r\n\r\nIf the medical device has a number of components that require recording of details, each individual component should be recorded explicitly by using an additional CLUSTER.device archetype inserted into the 'Components' SLOT.\r\n\r\nThe data field 'Software Version' allows for only a single version to be recorded. This is primarily applicable for a device which is a software application. If the device has multiple software or hardware components that need to be specified, this should be done by using an addition CLUSTER.device inserted into the 'Components' SLOT.\r\n\r\nTo record additional details for durable or persistent devices that relate to ownership, physical location tracking, maintenance schedules etc, use CLUSTER.device_details archetype inserted into the 'Asset management' SLOT in this archetype.\r\n\r\nThis archetype has been designed for generic use within other archetypes that need to describe a device. Examples include: OBSERVATION.blood_pressure for the sphygmomanometer; OBSERVATION.ecg for the ECG machine; OBSERVATION.urinalysis for the reactent strips and the device used for testing; ACTION.procedure; and CLUSTER.exam_tympanic_membrane to detail the otoscope used.",
          "misuse" : "Not to be used to record data about medicinal products that exert a direct pharmacological, metabolic or immunologic effect. For example: a medicine impregnated dressing that requires a prescription should be recorded using the  INSTRUCTION.medication_order archetype, focused on the active ingredients, dosage etc.",
          "copyright" : "© openEHR Foundation",
          "originalResourceUri" : { },
          "otherDetails" : { }
        }
      }
    },
    "parentArchetypeId" : "openEHR-EHR-CLUSTER.device.v1",
    "differential" : true,
    "archetypeId" : {
      "@type" : "ARCHETYPE_HRID",
      "value" : "openEHR-EHR-CLUSTER.ovl-device-001.v1"
    },
    "definition" : {
      "@type" : "C_COMPLEX_OBJECT",
      "rmTypeName" : "CLUSTER",
      "nodeId" : "at0000.1",
      "attributes" : [ {
        "@type" : "C_ATTRIBUTE",
        "rmAttributeName" : "items",
        "cardinality" : {
          "@type" : "CARDINALITY",
          "interval" : "1..*",
          "ordered" : false,
          "unique" : false
        },
        "children" : [ {
          "@type" : "C_COMPLEX_OBJECT",
          "rmTypeName" : "ELEMENT",
          "nodeId" : "at0020.1",
          "attributes" : [ ],
          "attributeTuples" : [ ]
        }, {
          "@type" : "C_COMPLEX_OBJECT",
          "rmTypeName" : "ELEMENT",
          "nodeId" : "at0022.1",
          "attributes" : [ ],
          "attributeTuples" : [ ]
        }, {
          "@type" : "C_COMPLEX_OBJECT",
          "rmTypeName" : "ELEMENT",
          "nodeId" : "at0023.1",
          "attributes" : [ ],
          "attributeTuples" : [ ]
        }, {
          "@type" : "C_ARCHETYPE_ROOT",
          "rmTypeName" : "CLUSTER",
          "occurrences" : "0..*",
          "nodeId" : "at0027.1",
          "attributes" : [ ],
          "attributeTuples" : [ ],
          "archetypeRef" : "openEHR-EHR-CLUSTER.ovl-multimedia-001.v0",
          "referenceType" : "archetypeOverlay"
        } ]
      } ],
      "attributeTuples" : [ ]
    },
    "terminology" : {
      "@type" : "ARCHETYPE_TERMINOLOGY",
      "conceptCode" : "at0000",
      "termDefinitions" : {
        "ar-sy" : {
          "at0004" : {
            "@type" : "ARCHETYPE_TERM",
            "code" : "at0004",
            "text" : "المُصَنِّع",
            "description" : "اسم المُصَنِّع"
          },
          "at0006" : {
            "@type" : "ARCHETYPE_TERM",
            "code" : "at0006",
            "text" : "رقم التشغيلة",
            "description" : "رقم التشغيلة من المُصَنِّع"
          }
        },
        "en" : { },
        "es-ar" : { },
        "pt-br" : { },
        "nb" : { }
      },
      "termBindings" : { },
      "terminologyExtracts" : { },
      "valueSets" : { }
    },
    "adlVersion" : "1.4",
    "buildUid" : "2a8b319e-fe20-490b-9b6e-728c0f87858e",
    "rmName" : "openehr",
    "rmRelease" : "1.0.3",
    "generated" : true,
    "otherMetaData" : { },
    "originalLanguage" : {
      "terminologyId" : {
        "value" : "ISO_639-1"
      },
      "codeString" : "en"
    },
    "translations" : [ {
      "@type" : "TRANSLATION_DETAILS",
      "language" : {
        "terminologyId" : {
          "value" : "ISO_639-1"
        },
        "codeString" : "es-ar"
      },
      "author" : {
        "name" : "Alan March",
        "organisation" : "Hospital Universitario Austral, Buenos Aires, Argentina",
        "email" : "amarch@cas.austral.edu.ar"
      },
      "accreditation" : "MD",
      "otherDetails" : { }
    }, {
      "@type" : "TRANSLATION_DETAILS",
      "language" : {
        "terminologyId" : {
          "value" : "ISO_639-1"
        },
        "codeString" : "nb"
      },
      "author" : {
        "name" : "Lars Bitsch-Larsen",
        "organisation" : "Haukeland University Hospital",
        "email" : "lbla@helse-bergen.no"
      },
      "otherDetails" : { }
    }, {
      "@type" : "TRANSLATION_DETAILS",
      "language" : {
        "terminologyId" : {
          "value" : "ISO_639-1"
        },
        "codeString" : "pt-br"
      },
      "author" : {
        "name" : "Osmeire Chamelette Sanzovo",
        "organisation" : "Hospital Sírio Libanês - SP",
        "email" : "osmeire.acsanzovo@hsl.org.br"
      },
      "otherDetails" : { }
    }, {
      "@type" : "TRANSLATION_DETAILS",
      "language" : {
        "terminologyId" : {
          "value" : "ISO_639-1"
        },
        "codeString" : "ar-sy"
      },
      "author" : {
        "name" : "Mona Saleh"
      },
      "otherDetails" : { }
    } ]
  }, {
    "@type" : "TEMPLATE_OVERLAY",
    "uid" : "e8d758ac-3991-4d03-8d26-97a0aac325f7",
    "description" : {
      "@type" : "RESOURCE_DESCRIPTION",
      "originalAuthor" : { },
      "otherContributors" : [ ],
      "ipAcknowledgements" : { },
      "references" : { },
      "conversionDetails" : { },
      "otherDetails" : {
        "PARENT:MD5-CAM-1.0.1" : "2193B3813F81507191F362F9CA27A052"
      },
      "details" : { }
    },
    "parentArchetypeId" : "openEHR-EHR-CLUSTER.multimedia.v0",
    "differential" : true,
    "archetypeId" : {
      "@type" : "ARCHETYPE_HRID",
      "value" : "openEHR-EHR-CLUSTER.ovl-multimedia-001.v0"
    },
    "definition" : {
      "@type" : "C_COMPLEX_OBJECT",
      "rmTypeName" : "CLUSTER",
      "nodeId" : "at0000.1",
      "attributes" : [ ],
      "attributeTuples" : [ ]
    },
    "terminology" : {
      "@type" : "ARCHETYPE_TERMINOLOGY",
      "conceptCode" : "at0000",
      "termDefinitions" : {
        "en" : { },
        "pt-br" : { }
      },
      "termBindings" : { },
      "terminologyExtracts" : { },
      "valueSets" : { }
    },
    "adlVersion" : "1.4",
    "buildUid" : "e4a389af-7fb3-478b-b7c4-bc6d58e3e7b4",
    "rmName" : "openehr",
    "rmRelease" : "1.0.3",
    "generated" : true,
    "otherMetaData" : { },
    "originalLanguage" : {
      "terminologyId" : {
        "value" : "ISO_639-1"
      },
      "codeString" : "en"
    },
    "translations" : [ {
      "@type" : "TRANSLATION_DETAILS",
      "language" : {
        "terminologyId" : {
          "value" : "ISO_639-1"
        },
        "codeString" : "pt-br"
      },
      "author" : {
        "name" : "Fernanda Maia Ewerton",
        "organisation" : "Core Consulting",
        "email" : "fernanda.maiaewerton@gmail.com"
      },
      "accreditation" : "Hospital Alemão Oswaldo Cruz (HAOC)",
      "otherDetails" : { }
    } ]
  } ],
  "originalLanguage" : {
    "terminologyId" : {
      "value" : "ISO_639-1"
    },
    "codeString" : "en"
  },
  "translations" : [ ]
}